Survey123 plot data
…
         `Kommentarer:...10`, 
         `Kommentarer:...11`, 
         `Kommentarer:...18`, 
         `Kommentarer:...29`, 
         `Dekning % av karplanter i feltsjikt`,
         `Dekning % av strø`,
         `Dekning % av bunnsjikt`,
         `Dekning % av vedplanter i feltsjikt`,
         `Dekning % av vedplanter i busksjikt`,
         `Vegetasjonshøyde måling 1`, 
         `Vegetasjonshøyde måling 2`, 
         `Vegetasjonshøyde måling 3`, 
         `Vegetasjonshøyde måling 4`)

# A tibble: 267 × 20
   `Registreringsdato:` `Polygon ID.x` Locality_ID Plot_number Plot_ID_new
   <dttm>               <chr>          <chr>       <chr>       <chr>      
 1 2024-07-22 10:00:00  Skipstadsand   SKI         13          SKI13      
 2 2024-07-22 10:00:00  Skipstadsand   SKI         2           SKI2       
 3 2024-07-22 10:00:00  Skipstadsand   SKI         14          SKI14      
 4 2024-07-22 10:00:00  Skipstadsand   SKI         9           SKI9       
 5 2024-07-22 10:00:00  Skipstadsand   SKI         4           SKI4       
 6 2024-07-22 10:00:00  Skipstadsand   SKI         6           SKI6       
 7 2024-07-22 10:00:00  Skipstadsand   SKI         3           SKI3       
 8 2024-07-22 10:00:00  Skipstadsand   SKI         7           SKI7       
 9 2024-07-22 10:00:00  Skipstadsand   SKI         8           SKI8       
10 2024-07-23 10:00:00  Filletassen    FI          1           FI1        
# ℹ 257 more rows
# ℹ 15 more variables: sp_species <chr>, `Smårutene nr.` <chr>,
#   `Kommentarer:...10` <chr>, `Kommentarer:...11` <lgl>,
#   `Kommentarer:...18` <chr>, `Kommentarer:...29` <chr>,
#   `Dekning % av karplanter i feltsjikt` <dbl>, `Dekning % av strø` <dbl>,
#   `Dekning % av bunnsjikt` <dbl>,
#   `Dekning % av vedplanter i feltsjikt` <dbl>, …
…
